19 Joining – COMP/STAT112 Notebook
…
Part b

What’s the grade-point average (GPA) for each student?

grades |>
  left_join(gpa_conversion, by = "grade") |>
  group_by(sid) |>
  summarize(GPA = mean(gp, na.rm = TRUE), .groups = "drop")

# A tibble: 443 × 2
   sid      GPA
   <chr>  <dbl>
 1 S31185  2.41
 2 S31188  3.02
 3 S31191  3.21
 4 S31194  3.36
 5 S31197  3.35
 6 S31200  2.2 
 7 S31203  3.82
 8 S31206  2.46
 9 S31209  3.13
10 S31212  3.67
# ℹ 433 more rows
…
  frac_below_Bplus
1        0.2834776

Part e

What’s the grade-point average for each instructor? Order from low to high.

grades |>
  left_join(gpa_conversion, by = "grade") |>
  left_join(courses, by = "sessionID") |>
  group_by(iid) |>
  summarize(GPA = mean(gp, na.rm = TRUE), .groups = "drop") |>
  arrange(GPA)

# A tibble: 364 × 2
   iid       GPA
   <chr>   <dbl>
 1 inst265  1.3 
 2 inst444  1.7 
 3 inst513  1.85
 4 inst200  2   
 5 inst507  2.2 
 6 inst445  2.3 
 7 inst420  2.6 
 8 inst262  2.65
 9 inst176  2.66
10 inst234  2.7 
# ℹ 354 more rows
…
